CShuttle::Status TW-2 FKT-DL0000 SL0000 DR0000 SR0000 TT0000 STAT-007F0021 TE-0000 SE-0001 0000 0000 0000 0000 0000 0000 0001 0000 0000
CShuttle::SendData TW-2 FKT-DL1111 SL0000 DR0000 SR0000 TT0111 STAT-007F0021 TE-1110 SE-0001 0000 0000 0000 0000 0000 0000 0001 0000 0000
CShuttle::SendOrder TW-2 FKT-DL1010 SL1010 DR0000 SR0000 TT0000 STAT-007F0021 TE-0000 SE-0001 0000 0000 0000 0000 0000 0000 0001 0000 0000
CShuttle::Status TW-2 FKT-DL0000 SL0000 DR0000 SR0000 TT0000 STAT-007F0021 TE-0000 SE-0001 0000 0000 0000 0000 0000 0000 0001 0000 0000
CShuttle::Status TW-2 FKT-DL0000 SL0000 DR0000 SR0000 TT0000 STAT-007F0021 TE-0000 SE-0001 0000 0000 0000 0000 0000 0000 0001 0000 0000
CShuttle::Status TW-2 FKT-DL0000 SL0000 DR0000 SR0000 TT0000 STAT-007F0021 TE-0000 SE-0001 0000 0000 0000 0000 0000 0000 0001 0000 0000
CShuttle::Status TW-2 FKT-DL0000 SL0000 DR0000 SR0000 TT0000 STAT-007F0021 TE-0000 SE-0001 0000 0000 0000 0000 0000 0000 0001 0000 0000
CShuttle::Status TW-2 FKT-DL0000 SL0000 DR0000 SR0000 TT0000 STAT-007F0021 TE-0000 SE-0001 0000 0000 0000 0000 0000 0000 0001 0000 0000
CShuttle::Status TW-2 FKT-DL0000 SL0000 DR0000 SR0000 TT0000 STAT-007F0021 TE-0000 SE-0001 0000 0000 0000 0000 0000 0000 0001 0000 0000
CShuttle::SendOrder TW-2 FKT-DL1010 SL1010 DR0000 SR0000 TT0000 STAT-007F0021 TE-0000 SE-0001 0000 0000 0000 0000 0000 0000 0001 0000 0000
CShuttle::Status TW-2 FKT-DL0000 SL0000 DR0000 SR0000 TT0000 STAT-007F0021 TE-0000 SE-0001 0000 0000 0000 0000 0000 0000 0001 0000 0000
CShuttle::Status TW-2 FKT-DL0000 SL0000 DR0000 SR0000 TT0000 STAT-007F0021 TE-0000 SE-0001 0000 0000 0000 0000 0000 0000 0001 0000 0000
CShuttle::Status TW-2 FKT-DL0000 SL0000 DR0000 SR0000 TT0000 STAT-007F0021 TE-0000 SE-0001 0000 0000 0000 0000 0000 0000 0001 0000 0000
CShuttle::SendOrder TW-2 FKT-DL1010 SL1010 DR0000 SR0000 TT0000 STAT-007F0021 TE-0000 SE-0001 0000 0000 0000 0000 0000 0000 0001 0000 0000
CShuttle::SendData TW-2 FKT-DL1111 SL0000 DR0000 SR0000 TT0111 STAT-007F0021 TE-1110 SE-0001 0000 0000 0000 0000 0000 0000 0001 0000 0000
CShuttle::Status TW-2 FKT-DL0000 SL0000 DR0000 SR0000 TT0000 STAT-007F0021 TE-0000 SE-0001 0000 0000 0000 0000 0000 0000 0001 0000 0000
CShuttle::SendOrder TW-2 FKT-DL1010 SL1010 DR0000 SR0000 TT0000 STAT-007F0021 TE-0000 SE-0001 0000 0000 0000 0000 0000 0000 0001 0000 0000
CShuttle::SendData TW-2 FKT-DL1111 SL0000 DR0000 SR0000 TT0111 STAT-007F0021 TE-1110 SE-0001 0000 0000 0000 0000 0000 0000 0001 0000 0000
CShuttle::SendOrder TW-2 FKT-DL1010 SL1010 DR0000 SR0000 TT0000 STAT-007F0021 TE-0000 SE-0001 0000 0000 0000 0000 0000 0000 0001 0000 0000
CShuttle::SendData TW-2 FKT-DL1111 SL0000 DR0000 SR0000 TT0111 STAT-007F0021 TE-1110 SE-0001 0000 0000 0000 0000 0000 0000 0001 0000 0000
CShuttle::SendOrder TW-2 FKT-DL1010 SL1010 DR0000 SR0000 TT0000 STAT-007F0021 TE-0000 SE-0001 0000 0000 0000 0000 0000 0000 0001 0000 0000
CShuttle::SendData TW-2 FKT-DL1111 SL0000 DR0000 SR0000 TT0111 STAT-007F0021 TE-1110 SE-0001 0000 0000 0000 0000 0000 0000 0001 0000 0000
CShuttle::SendOrder TW-2 FKT-DL1010 SL1010 DR0000 SR0000 TT0000 STAT-007F0021 TE-0000 SE-0001 0000 0000 0000 0000 0000 0000 0001 0000 0000
CShuttle::SendData TW-2 FKT-DL1111 SL0000 DR0000 SR0000 TT0111 STAT-007F0021 TE-1110 SE-0001 0000 0000 0000 0000 0000 0000 0001 0000 0000
CShuttle::SendOrder TW-2 FKT-DL1010 SL1010 DR0000 SR0000 TT0000 STAT-007F0021 TE-0000 SE-0001 0000 0000 0000 0000 0000 0000 0001 0000 0000
CShuttle::SendData TW-2 FKT-DL1111 SL0000 DR0000 SR0000 TT0111 STAT-007F0021 TE-1110 SE-0001 0000 0000 0000 0000 0000 0000 0001 0000 0000
CShuttle::SendOrder TW-2 FKT-DL1010 SL1010 DR0000 SR0000 TT0000 STAT-007F0021 TE-0000 SE-0001 0000 0000 0000 0000 0000 0000 0001 0000 0000
CShuttle::SendData TW-2 FKT-DL1111 SL0000 DR0000 SR0000 TT0111 STAT-007F0021 TE-1110 SE-0001 0000 0000 0000 0000 0000 0000 0001 0000 0000
CShuttle::Status TW-2 FKT-DL0000 SL0000 DR0000 SR0000 TT0000 STAT-007F0021 TE-0000 SE-0001 0000 0000 0000 0000 0000 0000 0001 0000 0000
CShuttle::Status TW-2 FKT-DL0000 SL0000 DR0000 SR0000 TT0000 STAT-007F0021 TE-0000 SE-0001 0000 0000 0000 0000 0000 0000 0001 0000 0000
CShuttle::Status TW-2 FKT-DL0000 SL0000 DR0000 SR0000 TT0000 STAT-007F0021 TE-0000 SE-0001 0000 0000 0000 0000 0000 0000 0001 0000 0000
CShuttle::Status TW-2 FKT-DL0000 SL0000 DR0000 SR0000 TT0000 STAT-007F0021 TE-0000 SE-0001 0000 0000 0000 0000 0000 0000 0001 0000 0000
CShuttle::Status TW-2 FKT-DL0000 SL0000 DR0000 SR0000 TT0000 STAT-007F0021 TE-0000 SE-0001 0000 0000 0000 0000 0000 0000 0001 0000 0000